Offer_Code|Offer_Date|Offer_Exp_Date|Offer|Offer_Text|Bonus_Item_1|Bonus_Amount_1|Bonus_Item_2|Bonus_Amount_2|Bonus_Item_3|Bonus_Amount_3|Bonus_Item_4|Bonus_Amount_4|Coupon_Amt_1|Coupon_Min_Order_1|Coupon_Amt_2|Coupon_Min_Order_2|Coupon_Amt_3|Coupon_Min_Order_3|Coupon_Amt_4|Coupon_Min_Order_4|One_Use|Affiliate|Free_Ship_Upgrade|Coupon_Type|Affiliate_Prog|Custnbr_Required|Last_Update|Catalog_Type|House_Credit|OverWeight|Mailed|Media_Code|List_Type|Media_Type
S03785|2013-05-19 00:00:00|2013-07-15 00:00:00| SH. EM. Save Up To 60% On Selected Items/ 7/7/2013|20^Super Sale^60^7/7/2013^84384,81838,72540,84385,80178,80174,80175,80177,80176,86187,70341,74512,75240,76496,86578,77162,86579,75616,03699,84379,75238,77216,75248,72539,81852,84365,84381,75216,80242,72408,03263,81922,30050,87061,87064,77173,82074,72516,68043,76514,02503,75314,86580,00698,72361,84399,73056,86135,71008,86581,00699,81894,87060,72512,77168,70166,71048,81900,64986,09654,87490,64823,21493,81904,03292,83333,64987,07799,57588,81907,87491,72409,77212,76382,83335,81849,03248,83084,65019,81106,75144,74508,84390,86569,75138,55939,65467,04661,86143,81910,86141,86142,54296,70270,03749,65152,86139,53090,76459,74372,07575,81861,75600,72369,66750,82586,72500,77118,73058^supersale.html||0||0||0||0|0|0|0|0|0|0|0|0|False|||||False|2013-06-12 02:06:00|4|Y|.00|1|SH|XXX|1
S03787|2013-05-19 00:00:00|2013-07-15 00:00:00| SH. EM. Save Up To 60% On Selected Items/ 7/7/2013|20^Super Sale^60^7/7/2013^84384,81838,72540,84385,80178,80174,80175,80177,80176,86187,70341,74512,75240,76496,86578,77162,86579,75616,03699,84379,75238,77216,75248,72539,81852,84365,84381,75216,80242,72408,03263,81922,30050,87061,87064,77173,82074,72516,68043,76514,02503,75314,86580,00698,72361,84399,73056,86135,71008,86581,00699,81894,87060,72512,77168,70166,71048,81900,64986,09654,87490,64823,21493,81904,03292,83333,64987,07799,57588,81907,87491,72409,77212,76382,83335,81849,03248,83084,65019,81106,75144,74508,84390,86569,75138,55939,65467,04661,86143,81910,86141,86142,54296,70270,03749,65152,86139,53090,76459,74372,07575,81861,75600,72369,66750,82586,72500,77118,73058^supersale.html||0||0||0||0|0|0|0|0|0|0|0|0|False|||||False|2013-06-12 02:06:00|4|Y|.00|1|SH|XXX|1
