
          - - - - - - - -
          ERROR
          SUBJECT: Something went wrong while importing from Price.txt file.
          Message: SQLSTATE[HY000]: General error: 1548 Cannot load from mysql.proc. The table is probably corrupted
          Trace: #0 /var/www/html/springhill/dailyfeed/PriceUpdateCron.php(90): Zend_Db_Adapter_Pdo_Abstract->exec('call spSkuNotFo...')
#1 /var/www/html/springhill/dailyfeed/dailybatch.php(73): priceCron(0)
#2 {main}
          ProductId: 
          Time: 2013 03 19 07:56:11
          