
					- - - - - - - -
					ERROR
                                        SUBJECT: Something went wrong while updating product information.
					Message: SQLSTATE[23000]: Integrity constraint violation: 1062 Duplicate entry '7641-1-0-2.0000-0' for key 'E8AB433B9ACB00343ABB312AD2FAB087'
					Trace: #0 /var/www/html/springhill/app/Mage.php(462): Mage_Core_Model_Config->getModelInstance('eav/entity_attr...', 'SQLSTATE[23000]...')
#1 /var/www/html/springhill/app/code/core/Mage/Eav/Model/Entity/Abstract.php(661): Mage::getModel('eav/entity_attr...', 'SQLSTATE[23000]...')
#2 /var/www/html/springhill/app/code/core/Mage/Eav/Model/Entity/Abstract.php(1648): Mage_Eav_Model_Entity_Abstract->walkAttributes('backend/afterSa...', Array)
#3 /var/www/html/springhill/app/code/core/Mage/Catalog/Model/Resource/Product.php(195): Mage_Eav_Model_Entity_Abstract->_afterSave(Object(Mage_Catalog_Model_Product))
#4 /var/www/html/springhill/app/code/core/Mage/Eav/Model/Entity/Abstract.php(1124): Mage_Catalog_Model_Resource_Product->_afterSave(Object(Mage_Catalog_Model_Product))
#5 /var/www/html/springhill/app/code/core/Mage/Core/Model/Abstract.php(318): Mage_Eav_Model_Entity_Abstract->save(Object(Mage_Catalog_Model_Product))
#6 /var/www/html/springhill/dailyfeed/InventoryUpdateCron.php(170): Mage_Core_Model_Abstract->save()
#7 /var/www/html/springhill/dailyfeed/InventoryUpdateCron.php(191): inventoryCron(600)
#8 /var/www/html/springhill/dailyfeed/InventoryUpdateCron.php(191): inventoryCron(500)
#9 /var/www/html/springhill/dailyfeed/InventoryUpdateCron.php(191): inventoryCron(400)
#10 /var/www/html/springhill/dailyfeed/InventoryUpdateCron.php(191): inventoryCron(300)
#11 /var/www/html/springhill/dailyfeed/InventoryUpdateCron.php(191): inventoryCron(200)
#12 /var/www/html/springhill/dailyfeed/InventoryUpdateCron.php(191): inventoryCron(100)
#13 /var/www/html/springhill/dailyfeed/dailybatch.php(71): inventoryCron(0)
#14 {main}
					ProductId: 65146
					Time: 2013 03 20 08:52:39
					